{
    "name": "Sellar1_output",
    "required": ["y_1","r_1"],
    "properties": {
        "y_1": {
            "items": {
                "type": "number"
            },
            "type": "array"
        },
        "r_1": {
            "items": {
                "type": "number"
            },
            "type": "array"
        }
    },
    "$schema": "http://json-schema.org/draft-04/schema",
    "type": "object",
    "id": "#Sellar1_output"
}
